{
  "success": true,
  "data": [
    {
      "id": 292,
      "filename": "cycle.png",
      "type": "image",
      "mimeType": "image/png",
      "url": "/api/media/292/content",
      "thumbnailUrl": "/api/media/thumbnail/292",
      "fileSize": 5502062,
      "createdAt": "2025-11-20T16:27:21.764Z",
      "originalName": "Cycle.png",
      "size": 5502062,
      "folderId": null,
      "tags": null,
      "altText": null,
      "caption": null,
      "metadata": {
        "format": "png",
        "dimensions": { "width": 2048, "height": 2048 }
      },
      "isActive": true
    },
    {
      "id": 291,
      "filename": "test-upload-browser.txt",
      "type": "document",
      "mimeType": "text/plain",
      "url": "/api/media/291/content",
      "thumbnailUrl": null,
      "fileSize": 48,
      "createdAt": "2025-11-20T16:22:58.553Z",
      "originalName": "test-upload-browser.txt",
      "size": 48,
      "folderId": null,
      "tags": null,
      "altText": null,
      "caption": null,
      "metadata": {},
      "isActive": true
    },
    {
      "id": 290,
      "filename": "test-upload-browser.txt",
      "type": "document",
      "mimeType": "text/plain",
      "url": "/api/media/290/content",
      "thumbnailUrl": null,
      "fileSize": 35,
      "createdAt": "2025-11-20T16:17:53.628Z",
      "originalName": "test-upload-browser.txt",
      "size": 35,
      "folderId": null,
      "tags": null,
      "altText": null,
      "caption": null,
      "metadata": {},
      "isActive": true
    },
    {
      "id": 289,
      "filename": "test-upload-browser.txt",
      "type": "document",
      "mimeType": "text/plain",
      "url": "/api/media/289/content",
      "thumbnailUrl": null,
      "fileSize": 35,
      "createdAt": "2025-11-20T16:04:47.536Z",
      "originalName": "test-upload-browser.txt",
      "size": 35,
      "folderId": null,
      "tags": null,
      "altText": null,
      "caption": null,
      "metadata": {},
      "isActive": true
    },
    {
      "id": 288,
      "filename": "test-upload-browser.txt",
      "type": "document",
      "mimeType": "text/plain",
      "url": "/api/media/288/content",
      "thumbnailUrl": null,
      "fileSize": 35,
      "createdAt": "2025-11-20T16:01:32.892Z",
      "originalName": "test-upload-browser.txt",
      "size": 35,
      "folderId": null,
      "tags": null,
      "altText": null,
      "caption": null,
      "metadata": {},
      "isActive": true
    },
    {
      "id": 286,
      "filename": "leather-jacket-colorway-a.gltf",
      "type": "model",
      "mimeType": "model/gltf+json",
      "url": "/api/media/286/content",
      "thumbnailUrl": null,
      "fileSize": 64739118,
      "createdAt": "2025-10-27T10:41:16.120Z",
      "originalName": "Leather Jacket_Colorway A.gltf",
      "size": 64739118,
      "folderId": null,
      "tags": null,
      "altText": null,
      "caption": null,
      "metadata": {},
      "isActive": true
    },
    {
      "id": 285,
      "filename": "leather-jacket-colorway-1.gltf",
      "type": "model",
      "mimeType": "model/gltf+json",
      "url": "/api/media/285/content",
      "thumbnailUrl": null,
      "fileSize": 65302088,
      "createdAt": "2025-10-27T10:38:34.024Z",
      "originalName": "Leather Jacket_Colorway 1.gltf",
      "size": 65302088,
      "folderId": null,
      "tags": null,
      "altText": null,
      "caption": null,
      "metadata": {},
      "isActive": true
    },
    {
      "id": 284,
      "filename": "leather-jacket-colorway-2.gltf",
      "type": "model",
      "mimeType": "model/gltf+json",
      "url": "/api/media/284/content",
      "thumbnailUrl": null,
      "fileSize": 64468818,
      "createdAt": "2025-10-27T10:38:16.988Z",
      "originalName": "Leather Jacket_Colorway 2.gltf",
      "size": 64468818,
      "folderId": null,
      "tags": null,
      "altText": null,
      "caption": null,
      "metadata": {},
      "isActive": true
    },
    {
      "id": 283,
      "filename": "w-scuba-diving-suit-colorway-a.png",
      "type": "image",
      "mimeType": "image/png",
      "url": "/api/media/283/content",
      "thumbnailUrl": "/api/media/thumbnail/283",
      "fileSize": 9033901,
      "createdAt": "2025-10-27T10:34:10.289Z",
      "originalName": "W. Scuba Diving Suit_Colorway A.png",
      "size": 9033901,
      "folderId": null,
      "tags": null,
      "altText": null,
      "caption": null,
      "metadata": {
        "format": "png",
        "dimensions": { "width": 3111, "height": 3967 }
      },
      "isActive": true
    },
    {
      "id": 282,
      "filename": "w-scuba-diving-suit-colorway-1.png",
      "type": "image",
      "mimeType": "image/png",
      "url": "/api/media/282/content",
      "thumbnailUrl": "/api/media/thumbnail/282",
      "fileSize": 9225522,
      "createdAt": "2025-10-27T10:33:30.079Z",
      "originalName": "W. Scuba Diving Suit_Colorway 1.png",
      "size": 9225522,
      "folderId": null,
      "tags": null,
      "altText": null,
      "caption": null,
      "metadata": {
        "format": "png",
        "dimensions": { "width": 3111, "height": 3968 }
      },
      "isActive": true
    },
    {
      "id": 281,
      "filename": "w-scuba-diving-suit-colorway-3.png",
      "type": "image",
      "mimeType": "image/png",
      "url": "/api/media/281/content",
      "thumbnailUrl": "/api/media/thumbnail/281",
      "fileSize": 8444394,
      "createdAt": "2025-10-27T10:33:29.697Z",
      "originalName": "W. Scuba Diving Suit_Colorway 3.png",
      "size": 8444394,
      "folderId": null,
      "tags": null,
      "altText": null,
      "caption": null,
      "metadata": {
        "format": "png",
        "dimensions": { "width": 3111, "height": 3967 }
      },
      "isActive": true
    },
    {
      "id": 280,
      "filename": "w-scuba-diving-suit-15.png",
      "type": "image",
      "mimeType": "image/png",
      "url": "/api/media/280/content",
      "thumbnailUrl": "/api/media/thumbnail/280",
      "fileSize": 12277262,
      "createdAt": "2025-10-27T10:32:41.072Z",
      "originalName": "W. Scuba Diving Suit_15.png",
      "size": 12277262,
      "folderId": null,
      "tags": null,
      "altText": null,
      "caption": null,
      "metadata": {
        "format": "png",
        "dimensions": { "width": 3884, "height": 4089 }
      },
      "isActive": true
    },
    {
      "id": 279,
      "filename": "w-scuba-diving-suit-14.png",
      "type": "image",
      "mimeType": "image/png",
      "url": "/api/media/279/content",
      "thumbnailUrl": "/api/media/thumbnail/279",
      "fileSize": 12909619,
      "createdAt": "2025-10-27T10:32:18.795Z",
      "originalName": "W. Scuba Diving Suit_14.png",
      "size": 12909619,
      "folderId": null,
      "tags": null,
      "altText": null,
      "caption": null,
      "metadata": {
        "format": "png",
        "dimensions": { "width": 4095, "height": 3983 }
      },
      "isActive": true
    },
    {
      "id": 278,
      "filename": "w-scuba-diving-suit-13.png",
      "type": "image",
      "mimeType": "image/png",
      "url": "/api/media/278/content",
      "thumbnailUrl": "/api/media/thumbnail/278",
      "fileSize": 7724545,
      "createdAt": "2025-10-27T10:31:24.328Z",
      "originalName": "W. Scuba Diving Suit_13.png",
      "size": 7724545,
      "folderId": null,
      "tags": null,
      "altText": null,
      "caption": null,
      "metadata": {
        "format": "png",
        "dimensions": { "width": 2374, "height": 4088 }
      },
      "isActive": true
    },
    {
      "id": 277,
      "filename": "w-scuba-diving-suit-12.png",
      "type": "image",
      "mimeType": "image/png",
      "url": "/api/media/277/content",
      "thumbnailUrl": "/api/media/thumbnail/277",
      "fileSize": 6059707,
      "createdAt": "2025-10-27T10:31:22.431Z",
      "originalName": "W. Scuba Diving Suit_12.png",
      "size": 6059707,
      "folderId": null,
      "tags": null,
      "altText": null,
      "caption": null,
      "metadata": {
        "format": "png",
        "dimensions": { "width": 1815, "height": 4095 }
      },
      "isActive": true
    },
    {
      "id": 276,
      "filename": "w-scuba-diving-suit-11.png",
      "type": "image",
      "mimeType": "image/png",
      "url": "/api/media/276/content",
      "thumbnailUrl": "/api/media/thumbnail/276",
      "fileSize": 9623615,
      "createdAt": "2025-10-27T10:30:51.442Z",
      "originalName": "W. Scuba Diving Suit_11.png",
      "size": 9623615,
      "folderId": null,
      "tags": null,
      "altText": null,
      "caption": null,
      "metadata": {
        "format": "png",
        "dimensions": { "width": 2997, "height": 4095 }
      },
      "isActive": true
    },
    {
      "id": 275,
      "filename": "w-scuba-diving-suit-10.png",
      "type": "image",
      "mimeType": "image/png",
      "url": "/api/media/275/content",
      "thumbnailUrl": "/api/media/thumbnail/275",
      "fileSize": 9377231,
      "createdAt": "2025-10-27T10:30:51.416Z",
      "originalName": "W. Scuba Diving Suit_10.png",
      "size": 9377231,
      "folderId": null,
      "tags": null,
      "altText": null,
      "caption": null,
      "metadata": {
        "format": "png",
        "dimensions": { "width": 2964, "height": 4095 }
      },
      "isActive": true
    },
    {
      "id": 274,
      "filename": "w-scuba-diving-suit-8.png",
      "type": "image",
      "mimeType": "image/png",
      "url": "/api/media/274/content",
      "thumbnailUrl": "/api/media/thumbnail/274",
      "fileSize": 7801815,
      "createdAt": "2025-10-27T10:30:02.750Z",
      "originalName": "W. Scuba Diving Suit_8.png",
      "size": 7801815,
      "folderId": null,
      "tags": null,
      "altText": null,
      "caption": null,
      "metadata": {
        "format": "png",
        "dimensions": { "width": 2395, "height": 4081 }
      },
      "isActive": true
    },
    {
      "id": 273,
      "filename": "w-scuba-diving-suit-9.png",
      "type": "image",
      "mimeType": "image/png",
      "url": "/api/media/273/content",
      "thumbnailUrl": "/api/media/thumbnail/273",
      "fileSize": 5979998,
      "createdAt": "2025-10-27T10:29:57.181Z",
      "originalName": "W. Scuba Diving Suit_9.png",
      "size": 5979998,
      "folderId": null,
      "tags": null,
      "altText": null,
      "caption": null,
      "metadata": {
        "format": "png",
        "dimensions": { "width": 1805, "height": 4095 }
      },
      "isActive": true
    },
    {
      "id": 272,
      "filename": "w-scuba-diving-suit-7.png",
      "type": "image",
      "mimeType": "image/png",
      "url": "/api/media/272/content",
      "thumbnailUrl": "/api/media/thumbnail/272",
      "fileSize": 10085832,
      "createdAt": "2025-10-27T10:29:35.905Z",
      "originalName": "W. Scuba Diving Suit_7.png",
      "size": 10085832,
      "folderId": null,
      "tags": null,
      "altText": null,
      "caption": null,
      "metadata": {
        "format": "png",
        "dimensions": { "width": 3205, "height": 4057 }
      },
      "isActive": true
    },
    {
      "id": 271,
      "filename": "w-scuba-diving-suit-6.png",
      "type": "image",
      "mimeType": "image/png",
      "url": "/api/media/271/content",
      "thumbnailUrl": "/api/media/thumbnail/271",
      "fileSize": 6748359,
      "createdAt": "2025-10-27T10:29:28.171Z",
      "originalName": "W. Scuba Diving Suit_6.png",
      "size": 6748359,
      "folderId": null,
      "tags": null,
      "altText": null,
      "caption": null,
      "metadata": {
        "format": "png",
        "dimensions": { "width": 1972, "height": 3945 }
      },
      "isActive": true
    },
    {
      "id": 270,
      "filename": "w-scuba-diving-suit-4.png",
      "type": "image",
      "mimeType": "image/png",
      "url": "/api/media/270/content",
      "thumbnailUrl": "/api/media/thumbnail/270",
      "fileSize": 9368903,
      "createdAt": "2025-10-27T10:28:43.417Z",
      "originalName": "W. Scuba Diving Suit_4.png",
      "size": 9368903,
      "folderId": null,
      "tags": null,
      "altText": null,
      "caption": null,
      "metadata": {
        "format": "png",
        "dimensions": { "width": 2963, "height": 3871 }
      },
      "isActive": true
    },
    {
      "id": 269,
      "filename": "w-scuba-diving-suit-5.png",
      "type": "image",
      "mimeType": "image/png",
      "url": "/api/media/269/content",
      "thumbnailUrl": "/api/media/thumbnail/269",
      "fileSize": 6380106,
      "createdAt": "2025-10-27T10:28:22.334Z",
      "originalName": "W. Scuba Diving Suit_5.png",
      "size": 6380106,
      "folderId": null,
      "tags": null,
      "altText": null,
      "caption": null,
      "metadata": {
        "format": "png",
        "dimensions": { "width": 2002, "height": 3960 }
      },
      "isActive": true
    },
    {
      "id": 268,
      "filename": "w-scuba-diving-suit-2.png",
      "type": "image",
      "mimeType": "image/png",
      "url": "/api/media/268/content",
      "thumbnailUrl": "/api/media/thumbnail/268",
      "fileSize": 6581709,
      "createdAt": "2025-10-27T10:27:41.039Z",
      "originalName": "W. Scuba Diving Suit_2.png",
      "size": 6581709,
      "folderId": null,
      "tags": null,
      "altText": null,
      "caption": null,
      "metadata": {
        "format": "png",
        "dimensions": { "width": 1985, "height": 3954 }
      },
      "isActive": true
    },
    {
      "id": 267,
      "filename": "w-scuba-diving-suit-3.png",
      "type": "image",
      "mimeType": "image/png",
      "url": "/api/media/267/content",
      "thumbnailUrl": "/api/media/thumbnail/267",
      "fileSize": 6474271,
      "createdAt": "2025-10-27T10:27:24.036Z",
      "originalName": "W. Scuba Diving Suit_3.png",
      "size": 6474271,
      "folderId": null,
      "tags": null,
      "altText": null,
      "caption": null,
      "metadata": {
        "format": "png",
        "dimensions": { "width": 1997, "height": 3987 }
      },
      "isActive": true
    },
    {
      "id": 266,
      "filename": "w-scuba-diving-suit-1.png",
      "type": "image",
      "mimeType": "image/png",
      "url": "/api/media/266/content",
      "thumbnailUrl": "/api/media/thumbnail/266",
      "fileSize": 9359478,
      "createdAt": "2025-10-27T10:26:59.771Z",
      "originalName": "W. Scuba Diving Suit_1.png",
      "size": 9359478,
      "folderId": null,
      "tags": null,
      "altText": null,
      "caption": null,
      "metadata": {
        "format": "png",
        "dimensions": { "width": 2993, "height": 3819 }
      },
      "isActive": true
    },
    {
      "id": 265,
      "filename": "leatherwax-men-jacket-panoramic-colorway.png",
      "type": "image",
      "mimeType": "image/png",
      "url": "/api/media/265/content",
      "thumbnailUrl": "/api/media/thumbnail/265",
      "fileSize": 12242323,
      "createdAt": "2025-10-27T10:26:30.587Z",
      "originalName": "Leather,wax Men Jacket_Panoramic_Colorway.png",
      "size": 12242323,
      "folderId": null,
      "tags": null,
      "altText": null,
      "caption": null,
      "metadata": {
        "format": "png",
        "dimensions": { "width": 3884, "height": 4089 }
      },
      "isActive": true
    },
    {
      "id": 264,
      "filename": "windbreaker-mid-air.mp4",
      "type": "video",
      "mimeType": "video/mp4",
      "url": "/api/media/264/content",
      "thumbnailUrl": "/api/media/thumbnail/264",
      "fileSize": 8365691,
      "createdAt": "2025-10-25T10:36:37.718Z",
      "originalName": "WindBreaker Mid-Air.mp4",
      "size": 8365691,
      "folderId": null,
      "tags": null,
      "altText": null,
      "caption": null,
      "metadata": { "codec": null, "duration": null, "resolution": null },
      "isActive": true
    },
    {
      "id": 263,
      "filename": "rain-jacket-animation.mp4",
      "type": "video",
      "mimeType": "video/mp4",
      "url": "/api/media/263/content",
      "thumbnailUrl": "/api/media/thumbnail/263",
      "fileSize": 4656957,
      "createdAt": "2025-10-25T10:36:17.566Z",
      "originalName": "Rain Jacket Animation.mp4",
      "size": 4656957,
      "folderId": null,
      "tags": null,
      "altText": null,
      "caption": null,
      "metadata": { "codec": null, "duration": null, "resolution": null },
      "isActive": true
    },
    {
      "id": 262,
      "filename": "run-hero.mp4",
      "type": "video",
      "mimeType": "video/mp4",
      "url": "/api/media/262/content",
      "thumbnailUrl": "/api/media/thumbnail/262",
      "fileSize": 3095398,
      "createdAt": "2025-10-25T10:36:16.011Z",
      "originalName": "RUN HERO.mp4",
      "size": 3095398,
      "folderId": null,
      "tags": null,
      "altText": null,
      "caption": null,
      "metadata": { "codec": null, "duration": null, "resolution": null },
      "isActive": true
    },
    {
      "id": 261,
      "filename": "activewear-animation.mp4",
      "type": "video",
      "mimeType": "video/mp4",
      "url": "/api/media/261/content",
      "thumbnailUrl": "/api/media/thumbnail/261",
      "fileSize": 5625586,
      "createdAt": "2025-10-25T10:36:01.939Z",
      "originalName": "Activewear Animation.mp4",
      "size": 5625586,
      "folderId": null,
      "tags": null,
      "altText": null,
      "caption": null,
      "metadata": { "codec": null, "duration": null, "resolution": null },
      "isActive": true
    },
    {
      "id": 260,
      "filename": "rain-jacket-animation-2.mp4",
      "type": "video",
      "mimeType": "video/mp4",
      "url": "/api/media/260/content",
      "thumbnailUrl": "/api/media/thumbnail/260",
      "fileSize": 3156877,
      "createdAt": "2025-10-25T10:36:01.128Z",
      "originalName": "Rain Jacket Animation 2.mp4",
      "size": 3156877,
      "folderId": null,
      "tags": null,
      "altText": null,
      "caption": null,
      "metadata": { "codec": null, "duration": null, "resolution": null },
      "isActive": true
    },
    {
      "id": 259,
      "filename": "sedex-member-logo-rgb-pos.png",
      "type": "image",
      "mimeType": "image/png",
      "url": "/api/media/259/content",
      "thumbnailUrl": "/api/media/thumbnail/259",
      "fileSize": 88163,
      "createdAt": "2025-10-25T04:15:54.193Z",
      "originalName": "Sedex_Member_Logo_RGB_Pos.png",
      "size": 88163,
      "folderId": null,
      "tags": null,
      "altText": null,
      "caption": null,
      "metadata": {
        "format": "png",
        "dimensions": { "width": 4646, "height": 525 }
      },
      "isActive": true
    },
    {
      "id": 258,
      "filename": "recycled-blended-claim-standard-seeklogo.png",
      "type": "image",
      "mimeType": "image/png",
      "url": "/api/media/258/content",
      "thumbnailUrl": "/api/media/thumbnail/258",
      "fileSize": 140222,
      "createdAt": "2025-10-25T04:15:38.365Z",
      "originalName": "recycled-blended-claim-standard-seeklogo.png",
      "size": 140222,
      "folderId": null,
      "tags": null,
      "altText": null,
      "caption": null,
      "metadata": {
        "format": "png",
        "dimensions": { "width": 2000, "height": 2000 }
      },
      "isActive": true
    },
    {
      "id": 257,
      "filename": "oeko-tex-standerd-100-logo-vector.svg",
      "type": "image",
      "mimeType": "image/svg+xml",
      "url": "/api/media/257/content",
      "thumbnailUrl": "/api/media/thumbnail/257",
      "fileSize": 44024,
      "createdAt": "2025-10-25T04:15:24.165Z",
      "originalName": "oeko tex standerd 100 Logo Vector.svg",
      "size": 44024,
      "folderId": null,
      "tags": null,
      "altText": null,
      "caption": null,
      "metadata": {
        "format": "svg+xml",
        "dimensions": { "width": 0, "height": 0 }
      },
      "isActive": true
    },
    {
      "id": 256,
      "filename": "iso-14001-seeklogo.png",
      "type": "image",
      "mimeType": "image/png",
      "url": "/api/media/256/content",
      "thumbnailUrl": "/api/media/thumbnail/256",
      "fileSize": 120021,
      "createdAt": "2025-10-25T04:15:11.480Z",
      "originalName": "iso-14001-seeklogo.png",
      "size": 120021,
      "folderId": null,
      "tags": null,
      "altText": null,
      "caption": null,
      "metadata": {
        "format": "png",
        "dimensions": { "width": 2000, "height": 1807 }
      },
      "isActive": true
    },
    {
      "id": 255,
      "filename": "bluesign-system-partners-seeklogo-2.svg",
      "type": "image",
      "mimeType": "image/svg+xml",
      "url": "/api/media/255/content",
      "thumbnailUrl": "/api/media/thumbnail/255",
      "fileSize": 9762,
      "createdAt": "2025-10-25T04:14:43.767Z",
      "originalName": "bluesign-system-partners-seeklogo-2.svg",
      "size": 9762,
      "folderId": null,
      "tags": null,
      "altText": null,
      "caption": null,
      "metadata": {
        "format": "svg+xml",
        "dimensions": { "width": 290, "height": 290 }
      },
      "isActive": true
    },
    {
      "id": 246,
      "filename": "gots-global-organic-textile-standard.svg",
      "type": "image",
      "mimeType": "image/svg+xml",
      "url": "/api/media/246/content",
      "thumbnailUrl": "/api/media/thumbnail/246",
      "fileSize": 27054,
      "createdAt": "2025-10-24T13:59:56.581Z",
      "originalName": "GOTS Global Organic Textile Standard.svg",
      "size": 27054,
      "folderId": null,
      "tags": null,
      "altText": null,
      "caption": null,
      "metadata": {
        "format": "svg+xml",
        "dimensions": { "width": 198, "height": 198 }
      },
      "isActive": true
    },
    {
      "id": 245,
      "filename": "iso-9001-2015-blue.svg",
      "type": "image",
      "mimeType": "image/svg+xml",
      "url": "/api/media/245/content",
      "thumbnailUrl": "/api/media/thumbnail/245",
      "fileSize": 19179,
      "createdAt": "2025-10-24T13:59:56.495Z",
      "originalName": "ISO 9001_2015 Blue.svg",
      "size": 19179,
      "folderId": null,
      "tags": null,
      "altText": null,
      "caption": null,
      "metadata": {
        "format": "svg+xml",
        "dimensions": { "width": 46, "height": 39 }
      },
      "isActive": true
    },
    {
      "id": 244,
      "filename": "global-recycled-standard.svg",
      "type": "image",
      "mimeType": "image/svg+xml",
      "url": "/api/media/244/content",
      "thumbnailUrl": "/api/media/thumbnail/244",
      "fileSize": 16075,
      "createdAt": "2025-10-24T13:59:52.761Z",
      "originalName": "Global Recycled Standard.svg",
      "size": 16075,
      "folderId": null,
      "tags": null,
      "altText": null,
      "caption": null,
      "metadata": {
        "format": "svg+xml",
        "dimensions": { "width": 6, "height": 32 }
      },
      "isActive": true
    },
    {
      "id": 243,
      "filename": "fairtrade-certification-mark.svg",
      "type": "image",
      "mimeType": "image/svg+xml",
      "url": "/api/media/243/content",
      "thumbnailUrl": "/api/media/thumbnail/243",
      "fileSize": 3259,
      "createdAt": "2025-10-24T13:59:52.691Z",
      "originalName": "fairtrade-certification-mark.svg",
      "size": 3259,
      "folderId": null,
      "tags": null,
      "altText": null,
      "caption": null,
      "metadata": {
        "format": "svg+xml",
        "dimensions": { "width": 2500, "height": 2499 }
      },
      "isActive": true
    },
    {
      "id": 240,
      "filename": "windbreaker-animation-1.mp4",
      "type": "video",
      "mimeType": "video/mp4",
      "url": "/api/media/240/content",
      "thumbnailUrl": "/api/media/thumbnail/240",
      "fileSize": 16102680,
      "createdAt": "2025-10-24T12:56:02.789Z",
      "originalName": "Windbreaker Animation 1.mp4",
      "size": 16102680,
      "folderId": null,
      "tags": null,
      "altText": null,
      "caption": null,
      "metadata": { "codec": null, "duration": null, "resolution": null },
      "isActive": true
    },
    {
      "id": 239,
      "filename": "text-behind-photo-2048x2048-1.png",
      "type": "image",
      "mimeType": "image/png",
      "url": "/api/media/239/content",
      "thumbnailUrl": "/api/media/thumbnail/239",
      "fileSize": 9274417,
      "createdAt": "2025-10-24T12:54:31.567Z",
      "originalName": "text-behind-photo-2048x2048 (1).png",
      "size": 9274417,
      "folderId": null,
      "tags": null,
      "altText": null,
      "caption": null,
      "metadata": {
        "format": "png",
        "dimensions": { "width": 2048, "height": 2048 }
      },
      "isActive": true
    },
    {
      "id": 238,
      "filename": "single-jersey2.png",
      "type": "image",
      "mimeType": "image/png",
      "url": "/api/media/238/content",
      "thumbnailUrl": "/api/media/thumbnail/238",
      "fileSize": 8960764,
      "createdAt": "2025-10-24T12:53:39.181Z",
      "originalName": "Single Jersey2.png",
      "size": 8960764,
      "folderId": null,
      "tags": null,
      "altText": null,
      "caption": null,
      "metadata": {
        "format": "png",
        "dimensions": { "width": 2464, "height": 1856 }
      },
      "isActive": true
    },
    {
      "id": 226,
      "filename": "stitching.png",
      "type": "image",
      "mimeType": "image/png",
      "url": "/api/media/226/content",
      "thumbnailUrl": "/api/media/thumbnail/226",
      "fileSize": 1658821,
      "createdAt": "2025-10-12T16:46:46.909Z",
      "originalName": "Stitching.png",
      "size": 1658821,
      "folderId": null,
      "tags": null,
      "altText": "Updated",
      "caption": null,
      "metadata": {
        "format": "png",
        "dimensions": { "width": 1024, "height": 1024 }
      },
      "isActive": true
    },
    {
      "id": 225,
      "filename": "single-jersey.png",
      "type": "image",
      "mimeType": "image/png",
      "url": "/api/media/225/content",
      "thumbnailUrl": "/api/media/thumbnail/225",
      "fileSize": 6721969,
      "createdAt": "2025-10-12T16:46:36.395Z",
      "originalName": "Single Jersey.png",
      "size": 6721969,
      "folderId": null,
      "tags": null,
      "altText": "Updated",
      "caption": null,
      "metadata": {
        "format": "png",
        "dimensions": { "width": 2464, "height": 1856 }
      },
      "isActive": true
    },
    {
      "id": 224,
      "filename": "single-jersey-polyester-performance-jersey.png",
      "type": "image",
      "mimeType": "image/png",
      "url": "/api/media/224/content",
      "thumbnailUrl": "/api/media/thumbnail/224",
      "fileSize": 218532,
      "createdAt": "2025-10-12T16:46:30.369Z",
      "originalName": "Single Jersey (Polyester Performance Jersey).png",
      "size": 218532,
      "folderId": null,
      "tags": null,
      "altText": "Updated",
      "caption": null,
      "metadata": {
        "format": "png",
        "dimensions": { "width": 800, "height": 800 }
      },
      "isActive": true
    },
    {
      "id": 223,
      "filename": "shorts.png",
      "type": "image",
      "mimeType": "image/png",
      "url": "/api/media/223/content",
      "thumbnailUrl": "/api/media/thumbnail/223",
      "fileSize": 5732021,
      "createdAt": "2025-10-12T16:46:22.693Z",
      "originalName": "shorts.png",
      "size": 5732021,
      "folderId": null,
      "tags": null,
      "altText": "Updated",
      "caption": null,
      "metadata": {
        "format": "png",
        "dimensions": { "width": 2048, "height": 2048 }
      },
      "isActive": true
    },
    {
      "id": 222,
      "filename": "running4.png",
      "type": "image",
      "mimeType": "image/png",
      "url": "/api/media/222/content",
      "thumbnailUrl": "/api/media/thumbnail/222",
      "fileSize": 7507675,
      "createdAt": "2025-10-12T16:46:12.554Z",
      "originalName": "running4.png",
      "size": 7507675,
      "folderId": null,
      "tags": null,
      "altText": "Updated",
      "caption": null,
      "metadata": {
        "format": "png",
        "dimensions": { "width": 2912, "height": 1632 }
      },
      "isActive": true
    },
    {
      "id": 221,
      "filename": "running.png",
      "type": "image",
      "mimeType": "image/png",
      "url": "/api/media/221/content",
      "thumbnailUrl": "/api/media/thumbnail/221",
      "fileSize": 6211284,
      "createdAt": "2025-10-12T16:45:58.672Z",
      "originalName": "RUNNING.png",
      "size": 6211284,
      "folderId": null,
      "tags": null,
      "altText": "Updated",
      "caption": null,
      "metadata": {
        "format": "png",
        "dimensions": { "width": 2464, "height": 1856 }
      },
      "isActive": true
    }
  ],
  "meta": { "page": 1, "limit": 50, "total": 103, "pages": 3 },
  "metadata": { "page": 1, "limit": 50, "total": 103, "pages": 3 }
}
